*** Time: Wed Sep  5 15:36:42 2007
*** Msg Level: warn
*** Begin Msg:
<?xml version="1.0" encoding="ISO-8859-1"?>
<mc_status>
  <ccbid>150</ccbid>
  <program>minicrate</program>
  <phys_state>ok</phys_state>
  <logic_state>error</logic_state>
  <ErrMsg>SeuRam error
  </ErrMsg>
</mc_status>

*** End Msg

*** Time: Fri Apr 25 17:37:35 2008
*** Msg Level: warn
*** Begin Msg:
<?xml version="1.0" encoding="ISO-8859-1"?>
<mc_status>
  <ccbid>31</ccbid>
  <program>minicrate</program>
  <phys_state>ok</phys_state>
  <logic_state>error</logic_state>
  <ErrMsg>LoseLockCountQPLL1 error
LoseLockCountQPLL2 error
  </ErrMsg>
</mc_status>

*** End Msg

*** Time: Fri Apr 25 17:38:43 2008
*** Msg Level: warn
*** Begin Msg:
<?xml version="1.0" encoding="ISO-8859-1"?>
<mc_status>
  <ccbid>161</ccbid>
  <program>minicrate</program>
  <phys_state>ok</phys_state>
  <logic_state>error</logic_state>
  <ErrMsg>LoseLockCountQPLL1 error
LoseLockCountQPLL2 error
  </ErrMsg>
</mc_status>

*** End Msg

*** Time: Fri Apr 25 17:38:51 2008
*** Msg Level: warn
*** Begin Msg:
<?xml version="1.0" encoding="ISO-8859-1"?>
<mc_status>
  <ccbid>161</ccbid>
  <program>minicrate</program>
  <phys_state>ok</phys_state>
  <logic_state>error</logic_state>
  <ErrMsg>LoseLockCountQPLL1 error
LoseLockCountQPLL2 error
  </ErrMsg>
</mc_status>

*** End Msg

*** Time: Fri Apr 25 17:38:58 2008
*** Msg Level: warn
*** Begin Msg:
<?xml version="1.0" encoding="ISO-8859-1"?>
<mc_status>
  <ccbid>161</ccbid>
  <program>minicrate</program>
  <phys_state>ok</phys_state>
  <logic_state>error</logic_state>
  <ErrMsg>LoseLockCountQPLL1 error
LoseLockCountQPLL2 error
  </ErrMsg>
</mc_status>

*** End Msg

*** Time: Fri Apr 25 18:28:01 2008
*** Msg Level: warn
*** Begin Msg:
<?xml version="1.0" encoding="ISO-8859-1"?>
<mc_status>
  <ccbid>149</ccbid>
  <program>minicrate</program>
  <phys_state>ok</phys_state>
  <logic_state>error</logic_state>
  <ErrMsg>LoseLockCountQPLL1 error
LoseLockCountQPLL2 error
  </ErrMsg>
</mc_status>

*** End Msg

*** Time: Fri Apr 25 18:33:28 2008
*** Msg Level: warn
*** Begin Msg:
<?xml version="1.0" encoding="ISO-8859-1"?>
<mc_status>
  <ccbid>149</ccbid>
  <program>minicrate</program>
  <phys_state>ok</phys_state>
  <logic_state>error</logic_state>
  <ErrMsg>LoseLockCountQPLL1 error
LoseLockCountQPLL2 error
  </ErrMsg>
</mc_status>

*** End Msg

*** Time: Fri Apr 25 18:33:30 2008
*** Msg Level: warn
*** Begin Msg:
<?xml version="1.0" encoding="ISO-8859-1"?>
<mc_status>
  <ccbid>149</ccbid>
  <program>minicrate</program>
  <phys_state>ok</phys_state>
  <logic_state>error</logic_state>
  <ErrMsg>LoseLockCountQPLL1 error
LoseLockCountQPLL2 error
  </ErrMsg>
</mc_status>

*** End Msg

*** Time: Fri Apr 25 18:33:32 2008
*** Msg Level: warn
*** Begin Msg:
<?xml version="1.0" encoding="ISO-8859-1"?>
<mc_status>
  <ccbid>149</ccbid>
  <program>minicrate</program>
  <phys_state>ok</phys_state>
  <logic_state>error</logic_state>
  <ErrMsg>LoseLockCountQPLL1 error
LoseLockCountQPLL2 error
  </ErrMsg>
</mc_status>

*** End Msg

*** Time: Fri Apr 25 18:33:35 2008
*** Msg Level: warn
*** Begin Msg:
<?xml version="1.0" encoding="ISO-8859-1"?>
<mc_status>
  <ccbid>149</ccbid>
  <program>minicrate</program>
  <phys_state>ok</phys_state>
  <logic_state>error</logic_state>
  <ErrMsg>LoseLockCountQPLL1 error
LoseLockCountQPLL2 error
  </ErrMsg>
</mc_status>

*** End Msg

*** Time: Fri Apr 25 18:38:04 2008
*** Msg Level: warn
*** Begin Msg:
<?xml version="1.0" encoding="ISO-8859-1"?>
<mc_status>
  <ccbid>149</ccbid>
  <program>minicrate</program>
  <phys_state>ok</phys_state>
  <logic_state>error</logic_state>
  <ErrMsg>LoseLockCountQPLL1 error
LoseLockCountQPLL2 error
  </ErrMsg>
</mc_status>

*** End Msg

*** Time: Fri Apr 25 18:45:54 2008
*** Msg Level: erro
*** Begin Msg:
<?xml version="1.0" encoding="ISO-8859-1"?>
<mc_status>
  <ccbid>19</ccbid>
  <program>minicrate</program>
  <phys_state>unknown</phys_state>
  <logic_state>unknown</logic_state>
  <ErrMsg>Reference values not found
  </ErrMsg>
</mc_status>

*** End Msg

*** Time: Fri Apr 25 18:46:01 2008
*** Msg Level: erro
*** Begin Msg:
<?xml version="1.0" encoding="ISO-8859-1"?>
<mc_status>
  <ccbid>19</ccbid>
  <program>minicrate</program>
  <phys_state>unknown</phys_state>
  <logic_state>unknown</logic_state>
  <ErrMsg>Reference values not found
  </ErrMsg>
</mc_status>

*** End Msg

*** Time: Fri Apr 25 18:46:29 2008
*** Msg Level: erro
*** Begin Msg:
<?xml version="1.0" encoding="ISO-8859-1"?>
<mc_status>
  <ccbid>19</ccbid>
  <program>minicrate</program>
  <phys_state>unknown</phys_state>
  <logic_state>unknown</logic_state>
  <ErrMsg>Reference values not found
  </ErrMsg>
</mc_status>

*** End Msg

*** Time: Fri Apr 25 18:47:52 2008
*** Msg Level: erro
*** Begin Msg:
<?xml version="1.0" encoding="ISO-8859-1"?>
<mc_status>
  <ccbid>168</ccbid>
  <program>minicrate</program>
  <phys_state>unknown</phys_state>
  <logic_state>unknown</logic_state>
  <ErrMsg>Wrong McType
  </ErrMsg>
</mc_status>

*** End Msg

*** Time: Fri Apr 25 18:47:56 2008
*** Msg Level: erro
*** Begin Msg:
<?xml version="1.0" encoding="ISO-8859-1"?>
<mc_status>
  <ccbid>168</ccbid>
  <program>minicrate</program>
  <phys_state>unknown</phys_state>
  <logic_state>unknown</logic_state>
  <ErrMsg>Wrong McType
  </ErrMsg>
</mc_status>

*** End Msg

*** Time: Fri Apr 25 18:48:02 2008
*** Msg Level: warn
*** Begin Msg:
<?xml version="1.0" encoding="ISO-8859-1"?>
<mc_status>
  <ccbid>149</ccbid>
  <program>minicrate</program>
  <phys_state>ok</phys_state>
  <logic_state>error</logic_state>
  <ErrMsg>LoseLockCountQPLL1 error
LoseLockCountQPLL2 error
  </ErrMsg>
</mc_status>

*** End Msg

*** Time: Fri Apr 25 19:10:24 2008
*** Msg Level: erro
*** Begin Msg:
<?xml version="1.0" encoding="ISO-8859-1"?>
<mc_status>
  <ccbid>19</ccbid>
  <program>minicrate</program>
  <phys_state>unknown</phys_state>
  <logic_state>unknown</logic_state>
  <ErrMsg>Reference values not found
  </ErrMsg>
</mc_status>

*** End Msg

*** Time: Fri Apr 25 19:19:24 2008
*** Msg Level: erro
*** Begin Msg:
<?xml version="1.0" encoding="ISO-8859-1"?>
<mc_status>
  <ccbid>19</ccbid>
  <program>minicrate</program>
  <phys_state>unknown</phys_state>
  <logic_state>unknown</logic_state>
  <ErrMsg>Reference values not found
  </ErrMsg>
</mc_status>

*** End Msg

*** Time: Fri Apr 25 19:21:16 2008
*** Msg Level: erro
*** Begin Msg:
<?xml version="1.0" encoding="ISO-8859-1"?>
<mc_status>
  <ccbid>19</ccbid>
  <program>minicrate</program>
  <phys_state>unknown</phys_state>
  <logic_state>unknown</logic_state>
  <ErrMsg>Reference values not found
  </ErrMsg>
</mc_status>

*** End Msg

*** Time: Wed Aug 13 12:00:40 2008
*** Msg Level: erro
*** Begin Msg:
<?xml version="1.0" encoding="ISO-8859-1"?>
<mc_status>
  <ccbid>5</ccbid>
  <program>minicrate</program>
  <phys_state>unknown</phys_state>
  <logic_state>unknown</logic_state>
  <ErrMsg>Reference values not found
  </ErrMsg>
</mc_status>

*** End Msg

*** Time: Wed Aug 13 12:00:48 2008
*** Msg Level: erro
*** Begin Msg:
<?xml version="1.0" encoding="ISO-8859-1"?>
<mc_status>
  <ccbid>5</ccbid>
  <program>minicrate</program>
  <phys_state>unknown</phys_state>
  <logic_state>unknown</logic_state>
  <ErrMsg>Reference values not found
  </ErrMsg>
</mc_status>

*** End Msg

*** Time: Fri Aug 15 09:54:19 2008
*** Msg Level: erro
*** Begin Msg:
<?xml version="1.0" encoding="ISO-8859-1"?>
<mc_status>
  <ccbid>2</ccbid>
  <program>minicrate</program>
  <phys_state>unknown</phys_state>
  <logic_state>unknown</logic_state>
  <ErrMsg>Reference values not found
  </ErrMsg>
</mc_status>

*** End Msg

*** Time: Fri Aug 15 09:56:17 2008
*** Msg Level: erro
*** Begin Msg:
<?xml version="1.0" encoding="ISO-8859-1"?>
<mc_status>
  <ccbid>50</ccbid>
  <program>minicrate</program>
  <phys_state>unknown</phys_state>
  <logic_state>unknown</logic_state>
  <ErrMsg>Reference values not found
  </ErrMsg>
</mc_status>

*** End Msg

*** Time: Fri Aug 15 09:56:30 2008
*** Msg Level: erro
*** Begin Msg:
<?xml version="1.0" encoding="ISO-8859-1"?>
<mc_status>
  <ccbid>50</ccbid>
  <program>minicrate</program>
  <phys_state>unknown</phys_state>
  <logic_state>unknown</logic_state>
  <ErrMsg>Reference values not found
  </ErrMsg>
</mc_status>

*** End Msg

*** Time: Sat Sep 13 19:21:57 2008
*** Msg Level: erro
*** Begin Msg:
<?xml version="1.0" encoding="ISO-8859-1"?>
<mc_status>
  <ccbid>260</ccbid>
  <program>minicrate</program>
  <phys_state>error</phys_state>
  <logic_state>ok</logic_state>
  <ErrMsg>BrdMaxtemp error
Sp_Vcc error
Sp_Vdd error
in_Tmax error
in_Tmed error
out_Tmax error
out_Tmed error
  </ErrMsg>
</mc_status>

*** End Msg

*** Time: Thu Apr  2 14:44:28 2009
*** Msg Level: erro
*** Begin Msg:
<?xml version="1.0" encoding="ISO-8859-1"?>
<mc_status>
  <ccbid>1</ccbid>
  <program>minicrate</program>
  <phys_state>unknown</phys_state>
  <logic_state>unknown</logic_state>
  <ErrMsg>Reference values not found
  </ErrMsg>
</mc_status>

*** End Msg

*** Time: Fri Jun  5 00:28:58 2009
*** Msg Level: erro
*** Begin Msg:
<?xml version="1.0" encoding="ISO-8859-1"?>
<mc_status>
  <ccbid>122</ccbid>
  <program>minicrate</program>
  <phys_state>unknown</phys_state>
  <logic_state>unknown</logic_state>
  <ErrMsg>Wrong McType
  </ErrMsg>
</mc_status>

*** End Msg

*** Time: Fri Jun  5 00:29:05 2009
*** Msg Level: erro
*** Begin Msg:
<?xml version="1.0" encoding="ISO-8859-1"?>
<mc_status>
  <ccbid>122</ccbid>
  <program>minicrate</program>
  <phys_state>unknown</phys_state>
  <logic_state>unknown</logic_state>
  <ErrMsg>Wrong McType
  </ErrMsg>
</mc_status>

*** End Msg

*** Time: Thu Oct  1 19:02:22 2009
*** Msg Level: warn
*** Begin Msg:
<?xml version="1.0" encoding="ISO-8859-1"?>
<mc_status>
  <ccbid>176</ccbid>
  <program>minicrate</program>
  <phys_state>ok</phys_state>
  <logic_state>error</logic_state>
  <ErrMsg>LoseLockCountQPLL1 error
LoseLockCountQPLL2 error
  </ErrMsg>
</mc_status>

*** End Msg

*** Time: Thu Oct  1 19:02:53 2009
*** Msg Level: erro
*** Begin Msg:
<?xml version="1.0" encoding="ISO-8859-1"?>
<mc_status>
  <ccbid>176</ccbid>
  <program>minicrate</program>
  <phys_state>error</phys_state>
  <logic_state>ok</logic_state>
  <ErrMsg>BrdMaxtemp error
Sp_Vcc error
Sp_Vdd error
in_Tmed error
th_Tmed error
out_Tmed error
  </ErrMsg>
</mc_status>

*** End Msg

*** Time: Thu Oct  1 19:04:04 2009
*** Msg Level: erro
*** Begin Msg:
<?xml version="1.0" encoding="ISO-8859-1"?>
<mc_status>
  <ccbid>274</ccbid>
  <program>minicrate</program>
  <phys_state>unknown</phys_state>
  <logic_state>unknown</logic_state>
  <ErrMsg>Wrong McType
  </ErrMsg>
</mc_status>

*** End Msg

*** Time: Thu Oct  1 19:07:24 2009
*** Msg Level: erro
*** Begin Msg:
<?xml version="1.0" encoding="ISO-8859-1"?>
<mc_status>
  <ccbid>274</ccbid>
  <program>minicrate</program>
  <phys_state>unknown</phys_state>
  <logic_state>unknown</logic_state>
  <ErrMsg>Wrong McType
  </ErrMsg>
</mc_status>

*** End Msg

*** Time: Thu Oct  1 19:07:27 2009
*** Msg Level: erro
*** Begin Msg:
<?xml version="1.0" encoding="ISO-8859-1"?>
<mc_status>
  <ccbid>274</ccbid>
  <program>minicrate</program>
  <phys_state>unknown</phys_state>
  <logic_state>unknown</logic_state>
  <ErrMsg>Wrong McType
  </ErrMsg>
</mc_status>

*** End Msg

*** Time: Thu Oct  1 19:07:38 2009
*** Msg Level: erro
*** Begin Msg:
<?xml version="1.0" encoding="ISO-8859-1"?>
<mc_status>
  <ccbid>274</ccbid>
  <program>minicrate</program>
  <phys_state>unknown</phys_state>
  <logic_state>unknown</logic_state>
  <ErrMsg>Wrong McType
  </ErrMsg>
</mc_status>

*** End Msg

*** Time: Thu Oct  1 19:07:41 2009
*** Msg Level: erro
*** Begin Msg:
<?xml version="1.0" encoding="ISO-8859-1"?>
<mc_status>
  <ccbid>274</ccbid>
  <program>minicrate</program>
  <phys_state>unknown</phys_state>
  <logic_state>unknown</logic_state>
  <ErrMsg>Wrong McType
  </ErrMsg>
</mc_status>

*** End Msg

*** Time: Thu Oct  1 19:08:02 2009
*** Msg Level: erro
*** Begin Msg:
<?xml version="1.0" encoding="ISO-8859-1"?>
<mc_status>
  <ccbid>274</ccbid>
  <program>unknown/program>
  <phys_state>unknown</phys_state>
  <ErrMsg>Unknown CCB command
  </ErrMsg>
</mc_status>

*** End Msg

*** Time: Thu Oct  1 19:08:10 2009
*** Msg Level: erro
*** Begin Msg:
<?xml version="1.0" encoding="ISO-8859-1"?>
<mc_status>
  <ccbid>274</ccbid>
  <program>unknown/program>
  <phys_state>unknown</phys_state>
  <ErrMsg>Wrong CCB reply
  </ErrMsg>
</mc_status>

*** End Msg

*** Time: Thu Oct  1 19:08:59 2009
*** Msg Level: erro
*** Begin Msg:
<?xml version="1.0" encoding="ISO-8859-1"?>
<mc_status>
  <ccbid>274</ccbid>
  <program>minicrate</program>
  <phys_state>unknown</phys_state>
  <logic_state>unknown</logic_state>
  <ErrMsg>Wrong McType
  </ErrMsg>
</mc_status>

*** End Msg

*** Time: Thu Oct  1 19:09:01 2009
*** Msg Level: erro
*** Begin Msg:
<?xml version="1.0" encoding="ISO-8859-1"?>
<mc_status>
  <ccbid>274</ccbid>
  <program>minicrate</program>
  <phys_state>unknown</phys_state>
  <logic_state>unknown</logic_state>
  <ErrMsg>Wrong McType
  </ErrMsg>
</mc_status>

*** End Msg

*** Time: Thu Oct  1 19:09:04 2009
*** Msg Level: erro
*** Begin Msg:
<?xml version="1.0" encoding="ISO-8859-1"?>
<mc_status>
  <ccbid>274</ccbid>
  <program>minicrate</program>
  <phys_state>unknown</phys_state>
  <logic_state>unknown</logic_state>
  <ErrMsg>Wrong McType
  </ErrMsg>
</mc_status>

*** End Msg

*** Time: Thu Oct  1 19:09:06 2009
*** Msg Level: erro
*** Begin Msg:
<?xml version="1.0" encoding="ISO-8859-1"?>
<mc_status>
  <ccbid>274</ccbid>
  <program>minicrate</program>
  <phys_state>unknown</phys_state>
  <logic_state>unknown</logic_state>
  <ErrMsg>Wrong McType
  </ErrMsg>
</mc_status>

*** End Msg

*** Time: Thu Oct  1 19:09:25 2009
*** Msg Level: erro
*** Begin Msg:
<?xml version="1.0" encoding="ISO-8859-1"?>
<mc_status>
  <ccbid>274</ccbid>
  <program>minicrate</program>
  <phys_state>unknown</phys_state>
  <logic_state>unknown</logic_state>
  <ErrMsg>Wrong McType
  </ErrMsg>
</mc_status>

*** End Msg

*** Time: Thu Oct  1 19:09:27 2009
*** Msg Level: erro
*** Begin Msg:
<?xml version="1.0" encoding="ISO-8859-1"?>
<mc_status>
  <ccbid>274</ccbid>
  <program>minicrate</program>
  <phys_state>unknown</phys_state>
  <logic_state>unknown</logic_state>
  <ErrMsg>Wrong McType
  </ErrMsg>
</mc_status>

*** End Msg

*** Time: Thu Oct  1 19:09:52 2009
*** Msg Level: erro
*** Begin Msg:
<?xml version="1.0" encoding="ISO-8859-1"?>
<mc_status>
  <ccbid>274</ccbid>
  <program>minicrate</program>
  <phys_state>unknown</phys_state>
  <logic_state>unknown</logic_state>
  <ErrMsg>Wrong McType
  </ErrMsg>
</mc_status>

*** End Msg

*** Time: Thu Oct  1 19:11:03 2009
*** Msg Level: erro
*** Begin Msg:
<?xml version="1.0" encoding="ISO-8859-1"?>
<mc_status>
  <ccbid>274</ccbid>
  <program>unknown/program>
  <phys_state>unknown</phys_state>
  <ErrMsg>Wrong CCB reply
  </ErrMsg>
</mc_status>

*** End Msg

*** Time: Thu Oct  1 19:11:07 2009
*** Msg Level: erro
*** Begin Msg:
<?xml version="1.0" encoding="ISO-8859-1"?>
<mc_status>
  <ccbid>274</ccbid>
  <program>minicrate</program>
  <phys_state>unknown</phys_state>
  <logic_state>unknown</logic_state>
  <ErrMsg>Wrong McType
  </ErrMsg>
</mc_status>

*** End Msg

*** Time: Thu Oct  1 19:11:09 2009
*** Msg Level: erro
*** Begin Msg:
<?xml version="1.0" encoding="ISO-8859-1"?>
<mc_status>
  <ccbid>274</ccbid>
  <program>minicrate</program>
  <phys_state>unknown</phys_state>
  <logic_state>unknown</logic_state>
  <ErrMsg>Wrong McType
  </ErrMsg>
</mc_status>

*** End Msg

*** Time: Thu Oct  1 19:11:13 2009
*** Msg Level: erro
*** Begin Msg:
<?xml version="1.0" encoding="ISO-8859-1"?>
<mc_status>
  <ccbid>274</ccbid>
  <program>unknown/program>
  <phys_state>unknown</phys_state>
  <ErrMsg>Wrong CCB reply
  </ErrMsg>
</mc_status>

*** End Msg

*** Time: Thu Oct  1 19:11:16 2009
*** Msg Level: erro
*** Begin Msg:
<?xml version="1.0" encoding="ISO-8859-1"?>
<mc_status>
  <ccbid>274</ccbid>
  <program>unknown/program>
  <phys_state>unknown</phys_state>
  <ErrMsg>Wrong CCB reply
  </ErrMsg>
</mc_status>

*** End Msg

*** Time: Thu Oct  1 19:11:19 2009
*** Msg Level: erro
*** Begin Msg:
<?xml version="1.0" encoding="ISO-8859-1"?>
<mc_status>
  <ccbid>274</ccbid>
  <program>minicrate</program>
  <phys_state>unknown</phys_state>
  <logic_state>unknown</logic_state>
  <ErrMsg>Wrong McType
  </ErrMsg>
</mc_status>

*** End Msg

*** Time: Thu Oct  1 19:11:24 2009
*** Msg Level: erro
*** Begin Msg:
<?xml version="1.0" encoding="ISO-8859-1"?>
<mc_status>
  <ccbid>274</ccbid>
  <program>minicrate</program>
  <phys_state>unknown</phys_state>
  <logic_state>unknown</logic_state>
  <ErrMsg>Wrong McType
  </ErrMsg>
</mc_status>

*** End Msg

*** Time: Thu Oct  1 19:11:30 2009
*** Msg Level: erro
*** Begin Msg:
<?xml version="1.0" encoding="ISO-8859-1"?>
<mc_status>
  <ccbid>274</ccbid>
  <program>unknown/program>
  <phys_state>unknown</phys_state>
  <ErrMsg>Wrong CCB reply
  </ErrMsg>
</mc_status>

*** End Msg

*** Time: Fri Oct  2 15:45:14 2009
*** Msg Level: warn
*** Begin Msg:
<?xml version="1.0" encoding="ISO-8859-1"?>
<mc_status>
  <ccbid>374</ccbid>
  <program>minicrate</program>
  <phys_state>ok</phys_state>
  <logic_state>error</logic_state>
  <ErrMsg>LoseLockCountQPLL1 error
LoseLockCountQPLL2 error
  </ErrMsg>
</mc_status>

*** End Msg

*** Time: Thu Nov  5 15:45:34 2009
*** Msg Level: erro
*** Begin Msg:
<?xml version="1.0" encoding="ISO-8859-1"?>
<mc_status>
  <ccbid>20</ccbid>
  <program>minicrate</program>
  <phys_state>unknown</phys_state>
  <logic_state>unknown</logic_state>
  <ErrMsg>Reference values not found
  </ErrMsg>
</mc_status>

*** End Msg

*** Time: Thu Nov  5 15:46:26 2009
*** Msg Level: erro
*** Begin Msg:
<?xml version="1.0" encoding="ISO-8859-1"?>
<mc_status>
  <ccbid>45</ccbid>
  <program>minicrate</program>
  <phys_state>unknown</phys_state>
  <logic_state>unknown</logic_state>
  <ErrMsg>Reference values not found
  </ErrMsg>
</mc_status>

*** End Msg

*** Time: Thu Nov  5 18:50:59 2009
*** Msg Level: erro
*** Begin Msg:
<?xml version="1.0" encoding="ISO-8859-1"?>
<mc_status>
  <ccbid>200</ccbid>
  <program>minicrate</program>
  <phys_state>error</phys_state>
  <logic_state>ok</logic_state>
  <ErrMsg>PwrAn error
PwrCK error
PwrRpc error
PwrTrbBuf error
PwrTrbVcc error
PwrSO error
PwrDU error
PwrDD error
PwrSBCK error
PwrTH error
PwrTrb error
PwrRob error
Vcc error
Vdd error
Fe_Vcc[0] error
Fe_Vcc[1] error
Fe_Vcc[2] error
Fe_Vdd[0] error
Fe_Vdd[1] error
Fe_Vdd[2] error
Sp_Vcc error
Sp_Vdd error
in_Tmed error
th_Tmed error
out_Tmed error
  </ErrMsg>
</mc_status>

*** End Msg

*** Time: Sun Jul 10 10:20:39 2011
*** Msg Level: erro
*** Begin Msg:
<?xml version="1.0" encoding="ISO-8859-1"?>
<mc_status>
  <ccbid>276</ccbid>
  <program>minicrate</program>
  <phys_state>unknown</phys_state>
  <logic_state>unknown</logic_state>
  <ErrMsg>Wrong McType
  </ErrMsg>
</mc_status>

*** End Msg

*** Time: Sun Jul 10 10:54:06 2011
*** Msg Level: erro
*** Begin Msg:
<?xml version="1.0" encoding="ISO-8859-1"?>
<mc_status>
  <ccbid>256</ccbid>
  <program>minicrate</program>
  <phys_state>error</phys_state>
  <logic_state>error</logic_state>
  <ErrMsg>PwrTrb error
PwrRob error
SeuRam error
Fe_Vcc[0] error
Fe_Vcc[1] error
Fe_Vcc[2] error
Fe_Vdd[0] error
Fe_Vdd[1] error
Fe_Vdd[2] error
Sp_Vcc error
Sp_Vdd error
in_Tmed error
th_Tmed error
  </ErrMsg>
</mc_status>

*** End Msg

*** Time: Sun Jul 10 10:59:24 2011
*** Msg Level: erro
*** Begin Msg:
<?xml version="1.0" encoding="ISO-8859-1"?>
<mc_status>
  <ccbid>256</ccbid>
  <program>minicrate</program>
  <phys_state>error</phys_state>
  <logic_state>ok</logic_state>
  <ErrMsg>PwrTrb error
PwrRob error
Fe_Vcc[0] error
Fe_Vcc[1] error
Fe_Vcc[2] error
Fe_Vdd[0] error
Fe_Vdd[1] error
Fe_Vdd[2] error
Sp_Vcc error
Sp_Vdd error
in_Tmed error
th_Tmed error
out_Tmed error
  </ErrMsg>
</mc_status>

*** End Msg

*** Time: Sun Jul 10 10:59:26 2011
*** Msg Level: erro
*** Begin Msg:
<?xml version="1.0" encoding="ISO-8859-1"?>
<mc_status>
  <ccbid>256</ccbid>
  <program>minicrate</program>
  <phys_state>error</phys_state>
  <logic_state>ok</logic_state>
  <ErrMsg>PwrTrb error
PwrRob error
Fe_Vcc[0] error
Fe_Vcc[1] error
Fe_Vcc[2] error
Fe_Vdd[0] error
Fe_Vdd[1] error
Fe_Vdd[2] error
Sp_Vcc error
Sp_Vdd error
in_Tmed error
th_Tmed error
out_Tmed error
  </ErrMsg>
</mc_status>

*** End Msg

*** Time: Sun Jul 10 10:59:29 2011
*** Msg Level: erro
*** Begin Msg:
<?xml version="1.0" encoding="ISO-8859-1"?>
<mc_status>
  <ccbid>256</ccbid>
  <program>minicrate</program>
  <phys_state>error</phys_state>
  <logic_state>ok</logic_state>
  <ErrMsg>PwrTrb error
PwrRob error
Fe_Vcc[0] error
Fe_Vcc[1] error
Fe_Vcc[2] error
Fe_Vdd[0] error
Fe_Vdd[1] error
Fe_Vdd[2] error
Sp_Vcc error
Sp_Vdd error
in_Tmed error
th_Tmed error
out_Tmed error
  </ErrMsg>
</mc_status>

*** End Msg

*** Time: Sun Jul 10 10:59:31 2011
*** Msg Level: erro
*** Begin Msg:
<?xml version="1.0" encoding="ISO-8859-1"?>
<mc_status>
  <ccbid>256</ccbid>
  <program>minicrate</program>
  <phys_state>error</phys_state>
  <logic_state>ok</logic_state>
  <ErrMsg>PwrTrb error
PwrRob error
Fe_Vcc[0] error
Fe_Vcc[1] error
Fe_Vcc[2] error
Fe_Vdd[0] error
Fe_Vdd[1] error
Fe_Vdd[2] error
Sp_Vcc error
Sp_Vdd error
in_Tmed error
th_Tmed error
out_Tmed error
  </ErrMsg>
</mc_status>

*** End Msg

*** Time: Tue Feb 14 11:29:40 2012
*** Msg Level: erro
*** Begin Msg:
<?xml version="1.0" encoding="ISO-8859-1"?>
<mc_status>
  <ccbid>222</ccbid>
  <program>minicrate</program>
  <phys_state>unknown</phys_state>
  <logic_state>unknown</logic_state>
  <ErrMsg>Wrong McType
  </ErrMsg>
</mc_status>

*** End Msg

*** Time: Tue Feb 28 12:08:01 2012
*** Msg Level: mesg
*** Begin Msg:
<?xml version="1.0" encoding="ISO-8859-1"?>
<ccbcmd>
  <sent_cmnd>55 55 00 01 00 00 00 0F 00 00 3A 98 2F FF 01   </sent_cmnd>
  <cmnd_reply>55 55 00 00 00 00 00 10 00 00 55 06 FC 2F 01 00   </cmnd_reply>
</ccbcmd>

*** End Msg

*** Time: Tue Feb 28 15:17:47 2012
*** Msg Level: mesg
*** Begin Msg:
<?xml version="1.0" encoding="ISO-8859-1"?>
<ccbcmd>
  <sent_cmnd>55 55 00 01 00 00 00 0F 00 00 3A 98 2F FF 01   </sent_cmnd>
  <cmnd_reply>55 55 00 00 00 00 00 10 00 00 55 06 FC 2F 01 00   </cmnd_reply>
</ccbcmd>

*** End Msg

*** Time: Fri Mar 30 12:53:29 2012
*** Msg Level: erro
*** Begin Msg:
<?xml version="1.0" encoding="ISO-8859-1"?>
<mc_status>
  <ccbid>216</ccbid>
  <program>minicrate</program>
  <phys_state>error</phys_state>
  <logic_state>ok</logic_state>
  <ErrMsg>Fe_Vcc[0] error
Sp_Vcc error
  </ErrMsg>
</mc_status>

*** End Msg

*** Time: Fri Mar 30 12:54:28 2012
*** Msg Level: erro
*** Begin Msg:
<?xml version="1.0" encoding="ISO-8859-1"?>
<mc_status>
  <ccbid>216</ccbid>
  <program>minicrate</program>
  <phys_state>error</phys_state>
  <logic_state>ok</logic_state>
  <ErrMsg>Fe_Vcc[0] error
Sp_Vcc error
  </ErrMsg>
</mc_status>

*** End Msg

*** Time: Fri Mar 30 13:00:36 2012
*** Msg Level: erro
*** Begin Msg:
<?xml version="1.0" encoding="ISO-8859-1"?>
<mc_status>
  <ccbid>216</ccbid>
  <program>minicrate</program>
  <phys_state>error</phys_state>
  <logic_state>ok</logic_state>
  <ErrMsg>Fe_Vcc[0] error
  </ErrMsg>
</mc_status>

*** End Msg

*** Time: Fri Mar 30 13:00:39 2012
*** Msg Level: erro
*** Begin Msg:
<?xml version="1.0" encoding="ISO-8859-1"?>
<mc_status>
  <ccbid>216</ccbid>
  <program>minicrate</program>
  <phys_state>error</phys_state>
  <logic_state>ok</logic_state>
  <ErrMsg>Fe_Vcc[0] error
  </ErrMsg>
</mc_status>

*** End Msg

*** Time: Fri Mar 30 13:00:41 2012
*** Msg Level: erro
*** Begin Msg:
<?xml version="1.0" encoding="ISO-8859-1"?>
<mc_status>
  <ccbid>216</ccbid>
  <program>minicrate</program>
  <phys_state>error</phys_state>
  <logic_state>ok</logic_state>
  <ErrMsg>Fe_Vcc[0] error
  </ErrMsg>
</mc_status>

*** End Msg

*** Time: Fri Mar 30 13:02:24 2012
*** Msg Level: erro
*** Begin Msg:
<?xml version="1.0" encoding="ISO-8859-1"?>
<mc_status>
  <ccbid>216</ccbid>
  <program>minicrate</program>
  <phys_state>error</phys_state>
  <logic_state>ok</logic_state>
  <ErrMsg>Fe_Vcc[0] error
  </ErrMsg>
</mc_status>

*** End Msg

*** Time: Fri Mar 30 13:02:27 2012
*** Msg Level: erro
*** Begin Msg:
<?xml version="1.0" encoding="ISO-8859-1"?>
<mc_status>
  <ccbid>216</ccbid>
  <program>minicrate</program>
  <phys_state>error</phys_state>
  <logic_state>ok</logic_state>
  <ErrMsg>Fe_Vcc[0] error
  </ErrMsg>
</mc_status>

*** End Msg

*** Time: Fri Mar 30 13:03:15 2012
*** Msg Level: erro
*** Begin Msg:
<?xml version="1.0" encoding="ISO-8859-1"?>
<mc_status>
  <ccbid>216</ccbid>
  <program>minicrate</program>
  <phys_state>error</phys_state>
  <logic_state>ok</logic_state>
  <ErrMsg>Fe_Vcc[0] (id 321) error
  </ErrMsg>
</mc_status>

*** End Msg

*** Time: Fri Mar 30 13:04:41 2012
*** Msg Level: erro
*** Begin Msg:
<?xml version="1.0" encoding="ISO-8859-1"?>
<mc_status>
  <ccbid>216</ccbid>
  <program>minicrate</program>
  <phys_state>error</phys_state>
  <logic_state>ok</logic_state>
  <ErrMsg>Sp_Vcc error
  </ErrMsg>
</mc_status>

*** End Msg

*** Time: Fri Mar 30 13:05:20 2012
*** Msg Level: erro
*** Begin Msg:
<?xml version="1.0" encoding="ISO-8859-1"?>
<mc_status>
  <ccbid>216</ccbid>
  <program>minicrate</program>
  <phys_state>error</phys_state>
  <logic_state>ok</logic_state>
  <ErrMsg>Sp_Vcc error
  </ErrMsg>
</mc_status>

*** End Msg

*** Time: Fri Mar 30 13:05:23 2012
*** Msg Level: erro
*** Begin Msg:
<?xml version="1.0" encoding="ISO-8859-1"?>
<mc_status>
  <ccbid>216</ccbid>
  <program>minicrate</program>
  <phys_state>error</phys_state>
  <logic_state>ok</logic_state>
  <ErrMsg>Fe_Vcc[0] (id 321) error
  </ErrMsg>
</mc_status>

*** End Msg

*** Time: Fri Mar 30 13:05:27 2012
*** Msg Level: erro
*** Begin Msg:
<?xml version="1.0" encoding="ISO-8859-1"?>
<mc_status>
  <ccbid>216</ccbid>
  <program>minicrate</program>
  <phys_state>error</phys_state>
  <logic_state>ok</logic_state>
  <ErrMsg>Sp_Vcc error
  </ErrMsg>
</mc_status>

*** End Msg

*** Time: Fri Mar 30 13:05:29 2012
*** Msg Level: erro
*** Begin Msg:
<?xml version="1.0" encoding="ISO-8859-1"?>
<mc_status>
  <ccbid>216</ccbid>
  <program>minicrate</program>
  <phys_state>error</phys_state>
  <logic_state>ok</logic_state>
  <ErrMsg>Fe_Vcc[0] (id 321) error
Sp_Vcc error
  </ErrMsg>
</mc_status>

*** End Msg

*** Time: Fri Mar 30 13:05:33 2012
*** Msg Level: erro
*** Begin Msg:
<?xml version="1.0" encoding="ISO-8859-1"?>
<mc_status>
  <ccbid>216</ccbid>
  <program>minicrate</program>
  <phys_state>error</phys_state>
  <logic_state>ok</logic_state>
  <ErrMsg>Fe_Vcc[0] (id 321) error
  </ErrMsg>
</mc_status>

*** End Msg

*** Time: Fri Mar 30 13:05:36 2012
*** Msg Level: erro
*** Begin Msg:
<?xml version="1.0" encoding="ISO-8859-1"?>
<mc_status>
  <ccbid>216</ccbid>
  <program>minicrate</program>
  <phys_state>error</phys_state>
  <logic_state>ok</logic_state>
  <ErrMsg>Fe_Vcc[0] (id 321) error
  </ErrMsg>
</mc_status>

*** End Msg

*** Time: Fri Mar 30 13:05:39 2012
*** Msg Level: erro
*** Begin Msg:
<?xml version="1.0" encoding="ISO-8859-1"?>
<mc_status>
  <ccbid>216</ccbid>
  <program>minicrate</program>
  <phys_state>error</phys_state>
  <logic_state>ok</logic_state>
  <ErrMsg>Fe_Vcc[0] (id 321) error
  </ErrMsg>
</mc_status>

*** End Msg

*** Time: Fri Mar 30 13:05:41 2012
*** Msg Level: erro
*** Begin Msg:
<?xml version="1.0" encoding="ISO-8859-1"?>
<mc_status>
  <ccbid>216</ccbid>
  <program>minicrate</program>
  <phys_state>error</phys_state>
  <logic_state>ok</logic_state>
  <ErrMsg>Fe_Vcc[0] (id 321) error
  </ErrMsg>
</mc_status>

*** End Msg

*** Time: Fri Mar 30 13:05:43 2012
*** Msg Level: erro
*** Begin Msg:
<?xml version="1.0" encoding="ISO-8859-1"?>
<mc_status>
  <ccbid>216</ccbid>
  <program>minicrate</program>
  <phys_state>error</phys_state>
  <logic_state>ok</logic_state>
  <ErrMsg>Fe_Vcc[0] (id 321) error
  </ErrMsg>
</mc_status>

*** End Msg

*** Time: Fri Mar 30 13:05:45 2012
*** Msg Level: erro
*** Begin Msg:
<?xml version="1.0" encoding="ISO-8859-1"?>
<mc_status>
  <ccbid>216</ccbid>
  <program>minicrate</program>
  <phys_state>error</phys_state>
  <logic_state>ok</logic_state>
  <ErrMsg>Fe_Vcc[0] (id 321) error
  </ErrMsg>
</mc_status>

*** End Msg

*** Time: Fri Mar 30 13:05:47 2012
*** Msg Level: erro
*** Begin Msg:
<?xml version="1.0" encoding="ISO-8859-1"?>
<mc_status>
  <ccbid>216</ccbid>
  <program>minicrate</program>
  <phys_state>error</phys_state>
  <logic_state>ok</logic_state>
  <ErrMsg>Fe_Vcc[0] (id 321) error
  </ErrMsg>
</mc_status>

*** End Msg

*** Time: Fri Mar 30 13:05:49 2012
*** Msg Level: erro
*** Begin Msg:
<?xml version="1.0" encoding="ISO-8859-1"?>
<mc_status>
  <ccbid>216</ccbid>
  <program>minicrate</program>
  <phys_state>error</phys_state>
  <logic_state>ok</logic_state>
  <ErrMsg>Fe_Vcc[0] (id 321) error
  </ErrMsg>
</mc_status>

*** End Msg

*** Time: Fri Mar 30 13:05:57 2012
*** Msg Level: erro
*** Begin Msg:
<?xml version="1.0" encoding="ISO-8859-1"?>
<mc_status>
  <ccbid>216</ccbid>
  <program>minicrate</program>
  <phys_state>error</phys_state>
  <logic_state>ok</logic_state>
  <ErrMsg>Fe_Vcc[0] (id 321) error
  </ErrMsg>
</mc_status>

*** End Msg

*** Time: Fri Mar 30 13:05:59 2012
*** Msg Level: erro
*** Begin Msg:
<?xml version="1.0" encoding="ISO-8859-1"?>
<mc_status>
  <ccbid>216</ccbid>
  <program>minicrate</program>
  <phys_state>error</phys_state>
  <logic_state>ok</logic_state>
  <ErrMsg>Fe_Vcc[0] (id 321) error
  </ErrMsg>
</mc_status>

*** End Msg

*** Time: Fri Mar 30 13:06:01 2012
*** Msg Level: erro
*** Begin Msg:
<?xml version="1.0" encoding="ISO-8859-1"?>
<mc_status>
  <ccbid>216</ccbid>
  <program>minicrate</program>
  <phys_state>error</phys_state>
  <logic_state>ok</logic_state>
  <ErrMsg>Fe_Vcc[0] (id 321) error
  </ErrMsg>
</mc_status>

*** End Msg

*** Time: Fri Mar 30 13:06:03 2012
*** Msg Level: erro
*** Begin Msg:
<?xml version="1.0" encoding="ISO-8859-1"?>
<mc_status>
  <ccbid>216</ccbid>
  <program>minicrate</program>
  <phys_state>error</phys_state>
  <logic_state>ok</logic_state>
  <ErrMsg>Fe_Vcc[0] (id 321) error
  </ErrMsg>
</mc_status>

*** End Msg

*** Time: Fri Mar 30 14:07:46 2012
*** Msg Level: erro
*** Begin Msg:
<?xml version="1.0" encoding="ISO-8859-1"?>
<mc_status>
  <ccbid>216</ccbid>
  <program>minicrate</program>
  <phys_state>error</phys_state>
  <logic_state>ok</logic_state>
  <ErrMsg>Fe_Vcc[0] (id 321) error
  </ErrMsg>
</mc_status>

*** End Msg

*** Time: Fri Mar 30 14:11:36 2012
*** Msg Level: erro
*** Begin Msg:
<?xml version="1.0" encoding="ISO-8859-1"?>
<mc_status>
  <ccbid>216</ccbid>
  <program>minicrate</program>
  <phys_state>error</phys_state>
  <logic_state>ok</logic_state>
  <ErrMsg>Sp_Vcc error
  </ErrMsg>
</mc_status>

*** End Msg

*** Time: Fri Mar 30 14:12:00 2012
*** Msg Level: erro
*** Begin Msg:
<?xml version="1.0" encoding="ISO-8859-1"?>
<mc_status>
  <ccbid>216</ccbid>
  <program>minicrate</program>
  <phys_state>error</phys_state>
  <logic_state>ok</logic_state>
  <ErrMsg>Sp_Vcc error
  </ErrMsg>
</mc_status>

*** End Msg

*** Time: Sat Nov  1 14:45:07 2014
*** Msg Level: erro
*** Begin Msg:
<?xml version="1.0" encoding="ISO-8859-1"?>
<mc_status>
  <ccbid>366</ccbid>
  <program>minicrate</program>
  <phys_state>unknown</phys_state>
  <logic_state>unknown</logic_state>
  <ErrMsg>Wrong McType
  </ErrMsg>
</mc_status>

*** End Msg

*** Time: Sat Nov  1 14:48:12 2014
*** Msg Level: erro
*** Begin Msg:
<?xml version="1.0" encoding="ISO-8859-1"?>
<mc_status>
  <ccbid>66</ccbid>
  <program>minicrate</program>
  <phys_state>unknown</phys_state>
  <logic_state>unknown</logic_state>
  <ErrMsg>Wrong McType
  </ErrMsg>
</mc_status>

*** End Msg

*** Time: Sat Nov  1 14:49:56 2014
*** Msg Level: erro
*** Begin Msg:
<?xml version="1.0" encoding="ISO-8859-1"?>
<mc_status>
  <ccbid>66</ccbid>
  <program>minicrate</program>
  <phys_state>unknown</phys_state>
  <logic_state>unknown</logic_state>
  <ErrMsg>Wrong McType
  </ErrMsg>
</mc_status>

*** End Msg

*** Time: Sat Nov  1 14:50:48 2014
*** Msg Level: erro
*** Begin Msg:
<?xml version="1.0" encoding="ISO-8859-1"?>
<mc_status>
  <ccbid>66</ccbid>
  <program>minicrate</program>
  <phys_state>unknown</phys_state>
  <logic_state>unknown</logic_state>
  <ErrMsg>Wrong McType
  </ErrMsg>
</mc_status>

*** End Msg

*** Time: Sun Nov  2 04:14:52 2014
*** Msg Level: erro
*** Begin Msg:
<?xml version="1.0" encoding="ISO-8859-1"?>
<mc_status>
  <ccbid>57</ccbid>
  <program>minicrate</program>
  <phys_state>unknown</phys_state>
  <logic_state>unknown</logic_state>
  <ErrMsg>Wrong McType
  </ErrMsg>
</mc_status>

*** End Msg

*** Time: Sun Nov  2 04:19:58 2014
*** Msg Level: erro
*** Begin Msg:
<?xml version="1.0" encoding="ISO-8859-1"?>
<mc_status>
  <ccbid>57</ccbid>
  <program>minicrate</program>
  <phys_state>unknown</phys_state>
  <logic_state>unknown</logic_state>
  <ErrMsg>Wrong McType
  </ErrMsg>
</mc_status>

*** End Msg

*** Time: Thu Nov  6 14:17:31 2014
*** Msg Level: warn
*** Begin Msg:
<?xml version="1.0" encoding="ISO-8859-1"?>
<mc_status>
  <ccbid>259</ccbid>
  <program>minicrate</program>
  <phys_state>ok</phys_state>
  <logic_state>error</logic_state>
  <ErrMsg>LoseLockCountTTC error
  </ErrMsg>
</mc_status>

*** End Msg

*** Time: Thu Nov  6 14:17:36 2014
*** Msg Level: warn
*** Begin Msg:
<?xml version="1.0" encoding="ISO-8859-1"?>
<mc_status>
  <ccbid>259</ccbid>
  <program>minicrate</program>
  <phys_state>ok</phys_state>
  <logic_state>error</logic_state>
  <ErrMsg>LoseLockCountTTC error
  </ErrMsg>
</mc_status>

*** End Msg

*** Time: Mon May  1 16:16:49 2017
*** Msg Level: erro
*** Begin Msg:
<?xml version="1.0" encoding="ISO-8859-1"?>
<mc_status>
  <ccbid>1</ccbid>
  <program>minicrate</program>
  <phys_state>unknown</phys_state>
  <logic_state>unknown</logic_state>
  <ErrMsg>Reference values not found
  </ErrMsg>
</mc_status>

*** End Msg

*** Time: Mon May  1 16:21:34 2017
*** Msg Level: erro
*** Begin Msg:
<?xml version="1.0" encoding="ISO-8859-1"?>
<mc_status>
  <ccbid>1</ccbid>
  <program>minicrate</program>
  <phys_state>unknown</phys_state>
  <logic_state>unknown</logic_state>
  <ErrMsg>Reference values not found
  </ErrMsg>
</mc_status>

*** End Msg

*** Time: Mon May  1 17:11:10 2017
*** Msg Level: erro
*** Begin Msg:
<?xml version="1.0" encoding="ISO-8859-1"?>
<mc_status>
  <ccbid>1</ccbid>
  <program>minicrate</program>
  <phys_state>unknown</phys_state>
  <logic_state>unknown</logic_state>
  <ErrMsg>Reference values not found
  </ErrMsg>
</mc_status>

*** End Msg

