PD, 18/09/2006
Tempi di esecuzione dei vari comandi della ccb
Tutti i tempi su una ccb nuda!



ROB
******************

0x32: 70 ms
0x33: 70-195 ms
0x41: 190 ms


CCB
***

0xEA: 130 ms

I2C
***
read_PADC (0x66,0x2F): 570 ms

