1 1 /home/dtdqm/LUT_PADC/LUT_PADC_ID_263_060614_1703.txt
2 2 /home/dtdqm/LUT_PADC/LUT_PADC_ID_063_060614_1703.txt
3 3 /home/dtdqm/LUT_PADC/LUT_PADC_ID_153_060614_1704.txt
4 4 /home/dtdqm/LUT_PADC/LUT_PADC_ID_070_060614_1705.txt
5 185 /home/dtdqm/LUT_PADC/LUT_PADC_ID_266_060614_1705.txt
6 6 /home/dtdqm/LUT_PADC/LUT_PADC_ID_023_060707_1330.txt
7 7 /home/dtdqm/LUT_PADC/LUT_PADC_ID_014_060707_1303.txt
8 8 /home/dtdqm/LUT_PADC/LUT_PADC_ID_052_060614_1707.txt
9 9 /home/dtdqm/LUT_PADC/LUT_PADC_ID_069_060614_1707.txt
10 10 /home/dtdqm/LUT_PADC/LUT_PADC_ID_243_060614_1707.txt
11 68 /home/dtdqm/LUT_PADC/LUT_PADC_ID_151_060614_1706.txt
12 12 /home/dtdqm/LUT_PADC/LUT_PADC_ID_089_060614_1706.txt
13 39 /home/dtdqm/LUT_PADC/LUT_PADC_ID_152_060614_1707.txt
14 189 /home/dtdqm/LUT_PADC/LUT_PADC_ID_177_060707_1320.txt
